{
  "dbpath":"c:/db/",

  "output_file":"c:/db/out/out.xlsx",
  "output_sheet":"main",
  "write_strategy": {
      "cell_reference":"B2"

  },
  "read_strategy": {
      "ranges": [
        {"id":"planejado",
            "from_sheet" : "controle",
            "simple_range" : "A8:Q23",
            "use_filename_as_id" : "True"
        },
        {"id":"realizado",
            "from_sheet" : "controle",
            "simple_range" : "A28:Q43",
            "use_filename_as_id" : "True"
        },
        {
          "id": "actual",
          "from_sheet": "controle",
          "simple_range": "A53:M68",
          "use_filename_as_id" : "False"
        }

      ]
      }


  }
